{
  "file_generated_by": "FlutterFire CLI",
  "purpose": "FirebaseAppID & ProjectID for this Firebase app in this directory",
  "GOOGLE_APP_ID": "1:379940479754:ios:d9d8c49744eb99c77510f3",
  "FIREBASE_PROJECT_ID": "fir-flutter-codelab-d1802",
  "GCM_SENDER_ID": "379940479754"
}